<?xml version="1.0" encoding="UTF-8" standalone="no"?>
<svg
   xml:space="preserve"
   width="1200"
   height="1200"
   viewBox="0 0 317.5 317.5"
   version="1.1"
   id="svg7"
   sodipodi:docname="template.svg"
   inkscape:version="1.3.2 (091e20ef0f, 2023-11-25)"
   xmlns:inkscape="http://www.inkscape.org/namespaces/inkscape"
   xmlns:sodipodi="http://sodipodi.sourceforge.net/DTD/sodipodi-0.dtd"
   xmlns:xlink="http://www.w3.org/1999/xlink"
   xmlns="http://www.w3.org/2000/svg"
   xmlns:svg="http://www.w3.org/2000/svg"><defs
     id="defs7" /><sodipodi:namedview
     id="namedview7"
     pagecolor="#ffffff"
     bordercolor="#000000"
     borderopacity="0.25"
     inkscape:showpageshadow="2"
     inkscape:pageopacity="0.0"
     inkscape:pagecheckerboard="true"
     inkscape:deskcolor="#d1d1d1"
     inkscape:zoom="0.37333333"
     inkscape:cx="633.48215"
     inkscape:cy="310.71429"
     inkscape:window-width="1920"
     inkscape:window-height="1128"
     inkscape:window-x="0"
     inkscape:window-y="0"
     inkscape:window-maximized="1"
     inkscape:current-layer="layer3" /><g
     inkscape:groupmode="layer"
     id="layer1"
     inkscape:label="design-below"
     style="display:inline"><image
       xlink:href="../../img/glasow/web/paulus-guter-bt-kandidat-glasow-leger-green-web.jpg"
       width="317.5"
       height="275.49701"
       y="33.105999"
       preserveAspectRatio="none"
       style="display:inline"
       id="image1"
       inkscape:label="example-image" /></g><g
     inkscape:groupmode="layer"
     id="layer3"
     inkscape:label="template"><path
       id="c"
       d="M298.91 121.194A145.105 145.105 0 0 0 121.195 18.59 145.105 145.105 0 0 0 18.59 196.306 145.105 145.105 0 0 0 196.306 298.91 145.105 145.105 0 0 0 298.91 121.194Z"
       style="display:inline;opacity:1;fill:none;stroke:#00f;stroke-width:0.831822"
       inkscape:label="path-hashtag" /><path
       id="a"
       d="M196.306 18.59A145.105 145.105 0 0 0 18.589 121.193a145.105 145.105 0 0 0 102.605 177.717 145.105 145.105 0 0 0 177.717-102.605A145.105 145.105 0 0 0 196.306 18.589Z"
       style="display:inline;fill:none;stroke:#00f;stroke-width:0.831822"
       inkscape:label="path-date" /><path
       id="b"
       d="M128.01 273.474A118.77 118.77 15 0 1 44.026 128.01 118.77 118.77 15 0 1 189.49 44.026a118.77 118.77 15 0 1 83.984 145.464 118.77 118.77 15 0 1-145.464 83.984"
       style="display:inline;fill:none;stroke:none;stroke-width:0.58323"
       inkscape:label="path-title" /><path
       d="M0 0v317.5h317.5V0Zm158.75 52.917A105.833 105.833 0 0 1 264.583 158.75 105.833 105.833 0 0 1 158.75 264.583 105.833 105.833 0 0 1 52.917 158.75 105.833 105.833 0 0 1 158.75 52.917"
       style="fill:#6ccd87;fill-opacity:1;stroke:none;stroke-width:0.263519"
       id="path1"
       inkscape:label="bg" /><path
       d="M158.75 0A158.75 158.75 0 0 0 0 158.75 158.75 158.75 0 0 0 158.75 317.5 158.75 158.75 0 0 0 317.5 158.75 158.75 158.75 0 0 0 158.75 0m0 52.917A105.833 105.833 0 0 1 264.583 158.75 105.833 105.833 0 0 1 158.75 264.583 105.833 105.833 0 0 1 52.917 158.75 105.833 105.833 0 0 1 158.75 52.917"
       style="fill:#1a8444;stroke-width:0.264583;fill-opacity:1"
       id="path2"
       inkscape:label="circle" /><g
       id="g7"
       inkscape:label="sunflower"><circle
         cx="277.521"
         cy="277.521"
         r="52.229"
         style="fill:#1a8444;stroke-width:.264583;fill-opacity:1"
         id="circle2"
         inkscape:label="sunflower-inner" /><path
         d="M316.762 268.403c2.37-.79-8.818.523-2.961 5.285 0 0 1.077.078-1.816 1.694-2.876 1.606 6.44 2.585 7.538 3.756 1.093 1.186-9.232-.114-9.028 2.844.205 2.959-1.782 1.088 5.088 8.049 0 0-4.13-.91-4.608-.355-.48.555 9.025 8.046 8.973 10.178 0 0-1.935 1.288-2.756.164-.824-1.122-6.577-7.155-7.5-7.331a2.69 2.69 0 0 0-2.676 1.347s2.52 5.561 1.733 5.707c-.79.163-4.727-2.472-4.727-2.472s-2.585 1.073-1.728 3.3c.837 2.213 7.841 9.777 7.448 10.233 0 0-.599 1.233-1.508 1.152-.907-.098-5.753-8.424-6.953-8.75-1.2-.324 1.389 7.79 1.389 7.79s-4.37-4.376-5.549-5.285c-1.166-.912-1.337.977-1.337.977l1.27 9.253s-13.637-19.288-10.295 3.704c0 0-.311 1.303-.77 1.27-.445-.05-3.36-7.608-3.015-9.676.342-2.064-2.399 5.743-2.399 5.743s-4.263-16.115-13.118.405c0 0-.616-6.243-1.986-7.316-1.353-1.075-2.482-1.645-2.824-1.45-.345.196-3.46 3.025-4.694 3.303-1.217.277.977-3.738-.839-4.863 0 0 .171-1.121-.888-2.733-1.062-1.606-2.075-1.007-8.173 5.238 0 0 2.552-5.919 2.539-7.968-.02-2.049-2.399-2.505-2.399-2.505s-4.437 3.205-5.722 2.816c-1.3-.394 2.124-4.329 2.194-5.401.019-.342-.5-.213-.5-.213s-.53-.354-4.982 2.116l-7.227 4.358c-.53-.31-1.236-.244-1.026-1.87.068-.473 13.494-6.472 12.895-7.106-.601-.619-5.087-1.676-5.087-1.676s2.81-3.22 1.968-3.575c-.839-.345-6.968-.831-6.968-.831s-1.062-1.593-.842-1.285c.208.326 5.997-.878 5.997-.878l-3.87-2.878s9.776-1.627 1.145-6.572c-3.202-1.819-6.526-3.073-10.137-3.692 9.212.44 15.292-1.787 14.263-4.973 0 0-.29-1.153-9.468-4.342 0 0 .26-1.041.874-1.189.613-.148 10.154 3.189 9.488 2.65-.686-.534-4.18-4.225-3.549-4.194.635.03 5.122 1.821 6.596.505 1.422-1.27 2.31-3.593 3.253-4.1.943-.503-2.5-3.523 2.02-2.127 0 0 3.068-1.645.654-4.31-2.417-2.684-10.072-11.287 2.414-.894 2.98 2.486 10.466-5.09 9.844-9.204 0 0 2.982 2.86 3.616 3.17.635.31 4.813.778 5.772-.6.448-.638-1.542-6.492-.275-9.078 0 0 .533-.049 1.028.505.495.553.565 6.668 2.824 7.824 0 0 2.554-1.417 2.981-2.472.43-1.057-.684 6.603 6.956 3.3 0 0 3.714-3.136 4.795-3.237 1.062-.098-.806 3.725.137 5.09.94 1.368 4.074 2.28 5.067.57.992-1.707 5.774-5.104 6.15-4.958.375.145-2.433 7.235-2.741 7.919-.464 1.01-.788 2.52-.788 2.52s.358 1.984 2.98 2.52c0 0 4.916-2.732 10.035-6.276-.53.617-1.078 1.251-1.627 1.935 0 0-6.626 6.455-6.626 7.398.019.927 2.277 3.026 4.126 1.84 1.85-1.192 6.336-2.946 6.73-2.635.376.308 1.096 1.166.172 1.689-.926.505-6.148 3.09-6.148 3.09s5.959.39 13.238-1.01c-7.878 3.041-10.619 7.66-10.549 8.1.238 1.48 12.486-1.528 12.81-.797 1.782 3.725-8.688 2.561-6.32 1.771m51.741.293c-.069-.44-1.27-.844-2.057-1.476-2.704-2.148-12.364-11.173-31.39-10.587a49 49 0 0 0-6.593.616c4.056-1.25 6.15-2 7.364-2.453 1.474-.554 11.183-3.727 16.405-19.907.446-1.381 1.715-4.715 1.389-4.974-.394-.311-3.647.244-6.953 2.147-3.305 1.917-14.439 3.575-15.755 3.77-.772.116-4.044-.34-8.924 2.082 5.497-5.365 11.338-12.978 12.895-23.676.754-5.122.43-7.22.208-7.202a3.4 3.4 0 0 0-.907.145c-1.235.342-2.468 1.332-6.51 3.886-4.04 2.57-8.34 5.414-8.34 5.414s1.473-13.968 1.01-14.294c-.446-.309-8.803-.244-21.613 13.32 0 0 1.456-11.613-.942-15.983 0 0-.666-3.173-1.179-4.834-.258-.83-.943-1.707-1.062-1.624-.137.078-1.27.26-3.083 2.243-2.828 3.072-15.98 6.847-18.156 22.993-1.642-6.518-5.137-15.234-13.768-19.643-4.896-4.534-7.054-5.886-7.313-5.774-.22.113-.12 2.116-.855 6.652-.842 5.09-1.578 6.683-1.578 6.683s-9.04-7.546-9.263-7.771c-.43-.407-5.942 16.18-4.316 24.456 0 0-2.86-2.113-8.066-4.65-5.91-2.878-15.859-3.383-15.792-2.942.122.746 8.393 16.097 11.867 21.48 0 0-22.278-3.643-21.902-2.311.122.44.666 1.27 1.541 4.8 0 0-8.753-.18-8.631.502.119.764 6.629 10.979 7.124 11.528 0 0-6.767 1.238-8.204 1.32-.959.099 4.538 14.471 19.576 18.064q3.419.806 6.58 1.22c-4.935-.078-10.401.897-16.652 3.09 0 0-3.627 1.335-5.546 2.783-1.917 1.445-11.476 2.974-11.937 4.29.22.979 11.662 8.408 11.662 8.408s-6.714 3.124-7.175 3.707c-.309.406-.567.764-.482.881.088.114.534.617 1.697 1.3 2.691 1.578 26.544 3.951 28.002 3.384 1.472-.554-12.965 14.843-13.19 22.602 0 0 2.365.163 3.7.26 1.027.08-4.348 9.71-3.371 9.658 6.489-.26 17.226-6.212 19.25-7.593 2.02-1.367 4.776-3.398 5.512-4.064.754-.669-4.71 8.587-2.466 16.714 0 0 .705 6.313.754 7.595.039 1.27 1.917 1.27 1.901 2.132-.019 1.041 5.259-3.953 7.759-5.87 2.5-1.92 5.89-5.627 7.535-8.067s.19 19.125-.482 23.27c-.22 1.334.104 1.48.326 1.917.069.132 2.4-1.689 3.135-2.145 1.098-.699 12.486-15.221 13.203-18.864 0 0 6.065 25.32 8.137 28.037.446.585.821 1.236 1.13.78.598-.895 1.507-3.267 2.191-3.467.873-.24 3.445-.549 4.78-4.16 1.352-3.609 3.766-7.14 4.914-16.506 0 0 12.897 15.61 14.573 17.076.67.585 4.179-4.96 5.723-13.856 1.557-8.893-1.782-20.848-3.889-21.255 0 0-.875-1.316 1.575-.487 1.389.471 6.767 9.318 19.146 16.05 2.09 1.122 6.51 1.156 6.544 1.076.995-2.637-8.717-26.785-8.717-26.785s.238-.277 2.192.486c1.953.764 20.516 12.168 31.769 6.816 2.277-1.073 2.414-1.303 2.414-1.303 1.285-5.267-8.631-15.22-14.714-19.724 0 0 16-.617 18.447-4.65 0 0 2.948-1.01 4.471-3.01.26-.34-1.712-3.821-4.025-5.334-6.047-3.984-7.347-5.481-7.347-5.481s1.694-1.933 4.127-2.666 10.328-5.334 8.222-7.61c-.05.019 2.481-2.08 2.396-2.635"
         style="fill:#ff0;fill-opacity:1;stroke-width:2.59044"
         id="path3"
         inkscape:label="sunflower" /></g><circle
       style="fill:none;stroke:#6ccd87;stroke-width:1.45584;stroke-dasharray:none;stroke-opacity:1"
       id="path4"
       cx="96.407532"
       cy="275.27774"
       inkscape:label="ballot-circle"
       r="8.5324945" /><text
       xml:space="preserve"
       style="font-size:31.75px;font-family:GrueneType;-inkscape-font-specification:GrueneType;fill:#6ccd87;fill-opacity:1;stroke-width:0.264583"
       id="text3"
       inkscape:label="date"><textPath
         xlink:href="#a"
         startOffset="50%"
         style="font-size:31.75px;text-align:center;text-anchor:middle;fill:#6ccd87;fill-opacity:1;stroke-width:0.264583"
         id="textPath3"> ✗ 23.02.</textPath></text><text
       xml:space="preserve"
       style="font-size:31.75px;font-family:'Gotham XNarrow';-inkscape-font-specification:'Gotham XNarrow, Medium Condensed';fill:#ffffff;fill-opacity:1;stroke-width:0.264583;font-weight:500;font-style:normal;font-stretch:condensed;font-variant:normal;font-variant-ligatures:normal;font-variant-caps:normal;font-variant-numeric:normal;font-variant-east-asian:normal"
       id="text4"
       inkscape:label="title"><textPath
         xlink:href="#b"
         startOffset="50%"
         style="font-stretch:condensed;font-size:31.75px;font-family:'Gotham XNarrow';-inkscape-font-specification:'Gotham XNarrow, Medium Condensed';text-align:center;text-anchor:middle;"
         id="textPath4">EIN GUTER. FÜR BERLIN.</textPath></text><text
       xml:space="preserve"
       style="font-size:31.75px;font-family:GrueneType;-inkscape-font-specification:GrueneType;fill:#6ccd87;fill-opacity:1;stroke-width:0.264583"
       id="text5"
       inkscape:label="hashtag"><textPath
         xlink:href="#c"
         startOffset="50%"
         style="font-size:31.75px;text-align:center;text-anchor:middle;fill:#6ccd87;fill-opacity:1;stroke-width:0.264583"
         id="textPath5">#TeamPaulus</textPath></text></g><g
     inkscape:groupmode="layer"
     id="layer4"
     inkscape:label="guides"><path
       d="M 128.01,273.474 A 118.77,118.77 0 0 1 44.026,128.01 118.77,118.77 0 0 1 189.49,44.026 118.77,118.77 0 0 1 273.474,189.49 118.77,118.77 0 0 1 128.01,273.474 Z"
       style="display:inline;fill:none;stroke:#0000ff;stroke-width:0.58323"
       id="path5"
       inkscape:label="inner-guide" /><path
       d="M 298.91,121.194 A 145.105,145.105 0 0 0 121.195,18.59 145.105,145.105 0 0 0 18.59,196.306 145.105,145.105 0 0 0 196.306,298.91 145.105,145.105 0 0 0 298.91,121.194 Z"
       style="display:inline;fill:none;stroke:#0000ff;stroke-width:0.831822"
       id="path6"
       inkscape:label="outer-guide" /></g><g
     inkscape:groupmode="layer"
     id="layer2"
     inkscape:label="design-above"
     style="display:inline"><path
       d="m -79.375,-79.375 v 476.25 h 476.25 V -79.375 H 158.75 Z M 158.75,0 A 158.75,158.75 0 0 1 317.5,158.75 158.75,158.75 0 0 1 158.75,317.5 158.75,158.75 0 0 1 0,158.75 158.75,158.75 0 0 1 158.75,0"
       style="fill:#000000;fill-opacity:1;stroke-width:0.396874"
       id="path7"
       inkscape:label="frame" /></g></svg>
