<?xml version="1.0" encoding="UTF-8" standalone="no"?>
<svg
   xml:space="preserve"
   width="1200"
   height="1200"
   viewBox="0 0 317.5 317.5"
   version="1.1"
   id="svg7"
   xmlns="http://www.w3.org/2000/svg"
   xmlns:svg="http://www.w3.org/2000/svg"><defs
     id="defs7" /><g
     id="layer3"><path
       id="c"
       d="M298.91 121.194A145.105 145.105 0 0 0 121.195 18.59 145.105 145.105 0 0 0 18.59 196.306 145.105 145.105 0 0 0 196.306 298.91 145.105 145.105 0 0 0 298.91 121.194Z"
       style="display:inline;opacity:1;fill:none;stroke:#00f;stroke-width:0.831822" /><path
       id="a"
       d="M196.306 18.59A145.105 145.105 0 0 0 18.589 121.193a145.105 145.105 0 0 0 102.605 177.717 145.105 145.105 0 0 0 177.717-102.605A145.105 145.105 0 0 0 196.306 18.589Z"
       style="display:inline;fill:none;stroke:#00f;stroke-width:0.831822" /><path
       id="b"
       d="M128.01 273.474A118.77 118.77 15 0 1 44.026 128.01 118.77 118.77 15 0 1 189.49 44.026a118.77 118.77 15 0 1 83.984 145.464 118.77 118.77 15 0 1-145.464 83.984"
       style="display:inline;fill:none;stroke:none;stroke-width:0.58323" /><path
       d="M0 0v317.5h317.5V0Zm158.75 52.917A105.833 105.833 0 0 1 264.583 158.75 105.833 105.833 0 0 1 158.75 264.583 105.833 105.833 0 0 1 52.917 158.75 105.833 105.833 0 0 1 158.75 52.917"
       style="fill:#6ccd87;fill-opacity:1;stroke:none;stroke-width:0.263519"
       id="path1" /><path
       d="M158.75 0A158.75 158.75 0 0 0 0 158.75 158.75 158.75 0 0 0 158.75 317.5 158.75 158.75 0 0 0 317.5 158.75 158.75 158.75 0 0 0 158.75 0m0 52.917A105.833 105.833 0 0 1 264.583 158.75 105.833 105.833 0 0 1 158.75 264.583 105.833 105.833 0 0 1 52.917 158.75 105.833 105.833 0 0 1 158.75 52.917"
       style="fill:#1a8444;stroke-width:0.264583;fill-opacity:1"
       id="path2" /><g
       id="g7"><circle
         cx="277.521"
         cy="277.521"
         r="52.229"
         style="fill:#1a8444;stroke-width:.264583;fill-opacity:1"
         id="circle2" /><path
         d="M316.762 268.403c2.37-.79-8.818.523-2.961 5.285 0 0 1.077.078-1.816 1.694-2.876 1.606 6.44 2.585 7.538 3.756 1.093 1.186-9.232-.114-9.028 2.844.205 2.959-1.782 1.088 5.088 8.049 0 0-4.13-.91-4.608-.355-.48.555 9.025 8.046 8.973 10.178 0 0-1.935 1.288-2.756.164-.824-1.122-6.577-7.155-7.5-7.331a2.69 2.69 0 0 0-2.676 1.347s2.52 5.561 1.733 5.707c-.79.163-4.727-2.472-4.727-2.472s-2.585 1.073-1.728 3.3c.837 2.213 7.841 9.777 7.448 10.233 0 0-.599 1.233-1.508 1.152-.907-.098-5.753-8.424-6.953-8.75-1.2-.324 1.389 7.79 1.389 7.79s-4.37-4.376-5.549-5.285c-1.166-.912-1.337.977-1.337.977l1.27 9.253s-13.637-19.288-10.295 3.704c0 0-.311 1.303-.77 1.27-.445-.05-3.36-7.608-3.015-9.676.342-2.064-2.399 5.743-2.399 5.743s-4.263-16.115-13.118.405c0 0-.616-6.243-1.986-7.316-1.353-1.075-2.482-1.645-2.824-1.45-.345.196-3.46 3.025-4.694 3.303-1.217.277.977-3.738-.839-4.863 0 0 .171-1.121-.888-2.733-1.062-1.606-2.075-1.007-8.173 5.238 0 0 2.552-5.919 2.539-7.968-.02-2.049-2.399-2.505-2.399-2.505s-4.437 3.205-5.722 2.816c-1.3-.394 2.124-4.329 2.194-5.401.019-.342-.5-.213-.5-.213s-.53-.354-4.982 2.116l-7.227 4.358c-.53-.31-1.236-.244-1.026-1.87.068-.473 13.494-6.472 12.895-7.106-.601-.619-5.087-1.676-5.087-1.676s2.81-3.22 1.968-3.575c-.839-.345-6.968-.831-6.968-.831s-1.062-1.593-.842-1.285c.208.326 5.997-.878 5.997-.878l-3.87-2.878s9.776-1.627 1.145-6.572c-3.202-1.819-6.526-3.073-10.137-3.692 9.212.44 15.292-1.787 14.263-4.973 0 0-.29-1.153-9.468-4.342 0 0 .26-1.041.874-1.189.613-.148 10.154 3.189 9.488 2.65-.686-.534-4.18-4.225-3.549-4.194.635.03 5.122 1.821 6.596.505 1.422-1.27 2.31-3.593 3.253-4.1.943-.503-2.5-3.523 2.02-2.127 0 0 3.068-1.645.654-4.31-2.417-2.684-10.072-11.287 2.414-.894 2.98 2.486 10.466-5.09 9.844-9.204 0 0 2.982 2.86 3.616 3.17.635.31 4.813.778 5.772-.6.448-.638-1.542-6.492-.275-9.078 0 0 .533-.049 1.028.505.495.553.565 6.668 2.824 7.824 0 0 2.554-1.417 2.981-2.472.43-1.057-.684 6.603 6.956 3.3 0 0 3.714-3.136 4.795-3.237 1.062-.098-.806 3.725.137 5.09.94 1.368 4.074 2.28 5.067.57.992-1.707 5.774-5.104 6.15-4.958.375.145-2.433 7.235-2.741 7.919-.464 1.01-.788 2.52-.788 2.52s.358 1.984 2.98 2.52c0 0 4.916-2.732 10.035-6.276-.53.617-1.078 1.251-1.627 1.935 0 0-6.626 6.455-6.626 7.398.019.927 2.277 3.026 4.126 1.84 1.85-1.192 6.336-2.946 6.73-2.635.376.308 1.096 1.166.172 1.689-.926.505-6.148 3.09-6.148 3.09s5.959.39 13.238-1.01c-7.878 3.041-10.619 7.66-10.549 8.1.238 1.48 12.486-1.528 12.81-.797 1.782 3.725-8.688 2.561-6.32 1.771m51.741.293c-.069-.44-1.27-.844-2.057-1.476-2.704-2.148-12.364-11.173-31.39-10.587a49 49 0 0 0-6.593.616c4.056-1.25 6.15-2 7.364-2.453 1.474-.554 11.183-3.727 16.405-19.907.446-1.381 1.715-4.715 1.389-4.974-.394-.311-3.647.244-6.953 2.147-3.305 1.917-14.439 3.575-15.755 3.77-.772.116-4.044-.34-8.924 2.082 5.497-5.365 11.338-12.978 12.895-23.676.754-5.122.43-7.22.208-7.202a3.4 3.4 0 0 0-.907.145c-1.235.342-2.468 1.332-6.51 3.886-4.04 2.57-8.34 5.414-8.34 5.414s1.473-13.968 1.01-14.294c-.446-.309-8.803-.244-21.613 13.32 0 0 1.456-11.613-.942-15.983 0 0-.666-3.173-1.179-4.834-.258-.83-.943-1.707-1.062-1.624-.137.078-1.27.26-3.083 2.243-2.828 3.072-15.98 6.847-18.156 22.993-1.642-6.518-5.137-15.234-13.768-19.643-4.896-4.534-7.054-5.886-7.313-5.774-.22.113-.12 2.116-.855 6.652-.842 5.09-1.578 6.683-1.578 6.683s-9.04-7.546-9.263-7.771c-.43-.407-5.942 16.18-4.316 24.456 0 0-2.86-2.113-8.066-4.65-5.91-2.878-15.859-3.383-15.792-2.942.122.746 8.393 16.097 11.867 21.48 0 0-22.278-3.643-21.902-2.311.122.44.666 1.27 1.541 4.8 0 0-8.753-.18-8.631.502.119.764 6.629 10.979 7.124 11.528 0 0-6.767 1.238-8.204 1.32-.959.099 4.538 14.471 19.576 18.064q3.419.806 6.58 1.22c-4.935-.078-10.401.897-16.652 3.09 0 0-3.627 1.335-5.546 2.783-1.917 1.445-11.476 2.974-11.937 4.29.22.979 11.662 8.408 11.662 8.408s-6.714 3.124-7.175 3.707c-.309.406-.567.764-.482.881.088.114.534.617 1.697 1.3 2.691 1.578 26.544 3.951 28.002 3.384 1.472-.554-12.965 14.843-13.19 22.602 0 0 2.365.163 3.7.26 1.027.08-4.348 9.71-3.371 9.658 6.489-.26 17.226-6.212 19.25-7.593 2.02-1.367 4.776-3.398 5.512-4.064.754-.669-4.71 8.587-2.466 16.714 0 0 .705 6.313.754 7.595.039 1.27 1.917 1.27 1.901 2.132-.019 1.041 5.259-3.953 7.759-5.87 2.5-1.92 5.89-5.627 7.535-8.067s.19 19.125-.482 23.27c-.22 1.334.104 1.48.326 1.917.069.132 2.4-1.689 3.135-2.145 1.098-.699 12.486-15.221 13.203-18.864 0 0 6.065 25.32 8.137 28.037.446.585.821 1.236 1.13.78.598-.895 1.507-3.267 2.191-3.467.873-.24 3.445-.549 4.78-4.16 1.352-3.609 3.766-7.14 4.914-16.506 0 0 12.897 15.61 14.573 17.076.67.585 4.179-4.96 5.723-13.856 1.557-8.893-1.782-20.848-3.889-21.255 0 0-.875-1.316 1.575-.487 1.389.471 6.767 9.318 19.146 16.05 2.09 1.122 6.51 1.156 6.544 1.076.995-2.637-8.717-26.785-8.717-26.785s.238-.277 2.192.486c1.953.764 20.516 12.168 31.769 6.816 2.277-1.073 2.414-1.303 2.414-1.303 1.285-5.267-8.631-15.22-14.714-19.724 0 0 16-.617 18.447-4.65 0 0 2.948-1.01 4.471-3.01.26-.34-1.712-3.821-4.025-5.334-6.047-3.984-7.347-5.481-7.347-5.481s1.694-1.933 4.127-2.666 10.328-5.334 8.222-7.61c-.05.019 2.481-2.08 2.396-2.635"
         style="fill:#ff0;fill-opacity:1;stroke-width:2.59044"
         id="path3" /></g><circle
       style="fill:none;stroke:#6ccd87;stroke-width:1.45584;stroke-dasharray:none;stroke-opacity:1"
       id="path4"
       cx="96.407532"
       cy="275.27774"
       r="8.5324945" /><path
       style="font-size:31.75px;font-family:GrueneType;-inkscape-font-specification:GrueneType;text-align:center;text-anchor:middle;fill:#6ccd87;stroke-width:0.264583"
       d="m 106.17811,268.86284 q 0.13619,0.0741 0.23561,0.41047 0.11304,0.34382 0.16563,0.83123 0.77268,-0.47982 1.00421,-0.35392 0.20429,0.11109 0.35844,0.67137 0.092,0.35003 -0.0635,0.63604 -0.19996,0.36773 -0.66993,0.51805 -4.50662,1.53757 -9.183074,3.77689 -0.363204,3.29656 -0.185642,7.61069 0.01531,0.36126 -0.07356,0.52469 -0.170338,0.31325 -0.764074,0.43156 0,0 -0.598757,0.0626 -0.03439,0.19306 -0.182514,0.46545 -0.22218,0.40859 -0.640306,0.46357 -0.487416,0.0526 -0.65085,-0.0363 -0.354109,-0.19256 -0.433944,-0.69478 -0.493822,-2.98613 -0.696677,-6.76697 -4.001505,1.77695 -9.794887,5.22653 -0.835749,0.49846 -1.870835,-0.0644 -0.490303,-0.26662 -0.23373,-0.86826 -0.487229,-0.75906 -0.03546,-1.58985 0.59248,-1.08956 0.971881,-1.4303 0.171781,-0.15365 0.850561,-0.52571 5.133494,-2.82019 10.208746,-4.75442 0.486154,-4.8532 1.104114,-7.28771 0.136634,-0.54334 0.210694,-0.67953 0.103684,-0.19068 0.541391,-0.41148 0.451328,-0.21339 0.66924,-0.0949 0.204294,0.11109 0.302769,0.67639 0.248478,-0.16488 0.514404,-0.23204 0.363648,-0.0846 0.744995,0.12277 0.435826,0.23699 0.349841,0.71964 -0.508752,2.688 -0.435943,5.4099 3.296678,-1.45434 7.585888,-2.72191 0.50461,-0.14912 0.69529,-0.0454 z m 6.44057,10.79751 4.02452,1.31314 c 1.89485,-3.33376 3.1051,-3.80164 4.58914,-3.31741 1.18221,0.38573 1.68025,1.07703 1.26169,2.35984 -0.52526,1.60981 -1.38837,2.71975 -2.92082,3.83394 -1.57402,1.15629 -9.95568,5.43492 -12.28377,6.42866 l -2.10216,3.62792 11.9981,3.9148 2.10217,-3.62792 -6.71592,-2.1913 c 3.22167,-1.2588 8.51989,-3.59342 11.38752,-6.58194 1.22187,-1.27119 2.14905,-2.83335 2.76458,-4.71985 0.99306,-3.04354 -0.49447,-5.39359 -3.46256,-6.36203 -5.23188,-1.70708 -7.62189,0.0736 -10.64249,5.32215 z m 13.95708,2.76153 4.0831,0.8968 c 0.71683,-1.41372 1.62906,-2.73035 2.99871,-2.42952 1.00785,0.22136 1.23028,0.81199 1.04297,1.66479 -0.23271,1.05954 -1.26052,4.38245 -4.33576,3.70702 l -0.93033,-0.20434 -1.66131,3.6172 1.00785,0.22136 c 1.83481,0.40299 2.37616,1.14494 2.09236,2.43706 -0.25541,1.1629 -1.64635,5.02911 -4.04969,4.50125 -1.13706,-0.24974 -1.42567,-0.90909 -1.1589,-2.12368 0.0738,-0.33595 0.17341,-0.66623 0.33608,-1.03683 l -4.26399,-0.93653 c -0.28814,0.6952 -0.50756,1.32423 -0.64378,1.94445 -0.62436,2.84266 0.49989,4.87746 3.98861,5.64371 6.61564,1.45304 9.67585,-3.96985 10.43074,-7.40689 0.45408,-2.06739 -0.3469,-3.35396 -1.465,-4.06005 l 0.017,-0.0775 c 2.84593,-0.37723 4.85769,-3.86328 5.36285,-6.16325 0.57894,-2.63592 -0.61655,-4.46965 -3.87269,-5.18482 -4.83252,-1.0614 -7.6315,2.06213 -8.97884,4.98979 z m 11.14553,14.5533 c -2.06841,-0.30107 -3.71854,1.11644 -4.00056,3.05394 -0.16769,1.15202 0.54057,2.16418 1.98061,2.37379 2.19932,0.32013 3.7376,-1.24735 4.00437,-3.08012 0.18675,-1.28294 -0.5182,-2.13419 -1.98442,-2.34761 z m 15.08504,-17.45286 c -3.93294,-0.27129 -7.26975,2.73413 -8.38753,6.63521 -3.04474,10.69019 -3.16763,11.31822 -3.20768,11.89892 -0.22031,3.19387 1.43621,5.32375 4.70927,5.54952 4.01213,0.27675 7.0249,-1.87581 8.35385,-6.53144 3.01289,-10.61282 3.17309,-11.39741 3.21679,-12.0309 0.21667,-3.14108 -1.38524,-5.29371 -4.6847,-5.52131 z m -6.91955,18.80361 c 0.0255,-0.36954 0.10741,-0.78822 3.45527,-12.41227 0.38321,-1.32615 0.96484,-2.45296 2.33741,-2.35828 0.97664,0.0674 1.27972,0.67174 1.22328,1.49 -0.0237,0.34315 -0.10195,0.70904 -3.41977,12.28212 -0.38503,1.35254 -1.0422,2.4211 -2.41478,2.32642 -0.92384,-0.0637 -1.20599,-0.58709 -1.18141,-1.32799 z m 10.97872,-10.18873 4.23105,-0.13877 c 0.64372,-3.78022 1.62171,-4.63294 3.18192,-4.68411 1.24287,-0.0408 1.9469,0.43912 1.99113,1.78777 0.0555,1.69242 -0.37712,3.03024 -1.43747,4.60043 -1.08506,1.62394 -7.50397,8.50555 -9.3533,10.23397 l -0.73823,4.12746 12.61384,-0.4137 0.73823,-4.12746 -7.06058,0.23157 c 2.59887,-2.28246 6.78263,-6.28467 8.45854,-10.07227 0.71484,-1.6118 1.05339,-3.39656 0.98834,-5.37987 -0.10494,-3.19974 -2.30502,-4.90124 -5.42543,-4.7989 -5.50037,0.1804 -7.13945,2.66963 -8.18804,8.63388 z m 15.68835,9.74953 c -2.07782,0.22721 -3.3198,2.01321 -3.10697,3.95952 0.12654,1.15727 1.06598,1.95949 2.51256,1.80131 2.20933,-0.24158 3.30542,-2.14471 3.1041,-3.98582 -0.14093,-1.28878 -1.0368,-1.93606 -2.50969,-1.77501 z"
       id="text3"
       aria-label=" ✗ 23.02." /><path
       style="font-weight:500;font-stretch:condensed;font-size:31.75px;font-family:'Gotham XNarrow';-inkscape-font-specification:'Gotham XNarrow, Medium Condensed';text-align:center;text-anchor:middle;fill:#ffffff;stroke-width:0.264583"
       d="m 61.933863,89.641219 8.372121,-10.460755 -4.36278,-3.49169 -4.523326,5.651782 -2.305332,-1.84504 4.067026,-5.081647 -4.114895,-3.293298 -4.067025,5.081646 -2.206178,-1.765684 4.443969,-5.552629 -4.362779,-3.49169 -8.292765,10.361601 z M 71.369978,78.24633 75.681628,73.803217 59.731991,58.3255 55.420342,62.768613 Z m 5.365238,-5.798641 4.625479,-3.822819 -6.027514,-7.293083 9.723003,4.238873 4.380744,-3.620554 -14.15859,-17.131403 -4.625479,3.822819 5.703889,6.901508 -9.179116,-4.029337 -4.601005,3.802593 z M 103.4198,54.077987 c 2.34537,-1.269704 3.97317,-3.197963 5.0182,-5.135662 l -5.51717,-10.191173 -6.924409,3.748651 2.327791,4.299837 1.926548,-1.042971 1.51156,2.792102 c -0.15011,0.189571 -0.39677,0.467526 -0.84351,0.709375 -1.479815,0.801123 -3.562995,0.08758 -5.482666,-3.458389 l -0.332542,-0.614263 c -1.738285,-3.210917 -1.175898,-5.573307 0.611047,-6.540701 1.312288,-0.71043 2.456849,-0.46356 3.517647,-0.171343 l 0.218898,-5.93126 c -2.609059,-0.284432 -4.545905,0.0059 -6.779586,1.215169 -4.718653,2.554524 -6.512477,8.110858 -3.247523,14.141799 l 0.589505,1.08892 c 3.355647,6.198466 8.7434,7.614202 13.40621,5.089909 z m 14.7789,-6.523106 c 4.4453,-1.618427 6.77136,-5.067027 4.77277,-10.556524 l -4.90959,-13.485071 -5.84751,2.128938 5.02907,13.813247 c 0.55396,1.521545 0.10673,2.427723 -0.90763,2.797028 -1.01436,0.369306 -1.95038,-0.06706 -2.5152,-1.618437 l -5.00734,-13.753579 -5.87735,2.1398 4.94218,13.574573 c 1.97687,5.429829 5.90514,6.56759 10.3206,4.960025 z m 12.54643,-4.269317 6.08401,-1.307902 -3.47662,-16.17228 4.06635,-0.874159 -1.19446,-5.556311 -14.21671,3.056221 1.19446,5.556311 4.06635,-0.874159 z m 11.27375,-2.304257 13.34886,-1.152261 -0.48056,-5.567298 -7.21218,0.622549 -0.25394,-2.941811 6.48464,-0.559748 -0.45326,-5.250973 -6.48463,0.559747 -0.24302,-2.815281 7.08565,-0.611627 -0.48056,-5.567297 -13.22233,1.141339 z m 14.70187,-1.227371 6.12105,0.286416 0.30868,-6.596782 0.53916,0.02523 2.3554,6.72144 6.78708,0.317581 -3.2297,-8.415156 c 1.86268,-1.088877 3.27931,-2.83432 3.4292,-6.037565 l 0.0134,-0.285438 c 0.10982,-2.346932 -0.50778,-4.092207 -1.68531,-5.418695 -1.36041,-1.49397 -3.57806,-2.328787 -6.43244,-2.462349 l -7.16766,-0.335389 z m 6.65233,-11.067661 0.2597,-5.550177 1.11004,0.05194 c 1.23689,0.05788 2.08485,0.955742 2.00175,2.731799 l -0.0119,0.253722 c -0.0831,1.776057 -1.01269,2.622533 -2.2813,2.563172 z m 9.88479,12.140126 6.21696,0.932469 0.93246,-6.216959 -6.21695,-0.93247 z m 12.8452,2.176135 5.94208,1.738753 2.28267,-7.800885 5.85066,1.712003 1.50692,-5.149803 -5.85066,-1.712002 0.856,-2.925332 6.46011,1.890336 1.59608,-5.454525 -12.40219,-3.629089 z m 30.64465,-13.708468 4.14924,1.843287 1.59837,-3.597939 -4.14924,-1.843287 z m -5.01971,-2.229991 4.14924,1.843287 1.59837,-3.597939 -4.14923,-1.843287 z m -4.98323,23.495322 c 4.32333,1.920628 8.39153,1.052776 10.76331,-4.286101 l 5.82633,-13.115069 -5.68706,-2.526464 -5.96813,13.434241 c -0.65739,1.479798 -1.60834,1.821669 -2.59487,1.383405 -0.98653,-0.438264 -1.35742,-1.402096 -0.68713,-2.91091 l 5.94235,-13.376209 -5.71609,-2.539354 -5.865,13.202116 c -2.346,5.280846 -0.30802,8.826607 3.98629,10.734345 z m 8.94671,3.682994 5.18301,3.26889 3.52295,-5.585843 0.45654,0.287933 -1.26713,7.008573 5.74697,3.624572 1.34222,-8.913151 c 2.15741,-0.02821 4.25075,-0.847584 5.96141,-3.55994 l 0.15243,-0.241696 c 1.25336,-1.987271 1.57716,-3.810061 1.20731,-5.544815 -0.4463,-1.970652 -1.96345,-3.790862 -4.3804,-5.315215 l -6.06924,-3.82782 z m 11.24655,-6.345206 2.96402,-4.699628 0.93993,0.592804 c 1.04734,0.660553 1.34198,1.859882 0.39349,3.363762 l -0.1355,0.214841 c -0.94848,1.503881 -2.17467,1.781578 -3.24887,1.104088 z m 7.15025,18.724525 5.44178,5.058108 c 4.16273,3.869237 7.88541,3.688275 10.30639,1.08366 l 0.15131,-0.162788 c 1.85896,-1.999972 1.644,-4.193748 0.81233,-6.05047 1.83942,0.539357 3.91856,0.261193 5.51813,-1.459713 l 0.15131,-0.162789 c 1.16726,-1.255796 1.61493,-2.530229 1.57066,-3.741755 -0.0721,-1.974339 -1.28604,-3.83956 -3.23951,-5.655291 l -5.58131,-5.187803 z m 17.05485,-4.824272 c -0.75656,0.813942 -1.74701,0.760272 -2.70048,-0.125978 l -0.8372,-0.778171 2.39936,-2.581359 0.8372,0.778171 c 0.95347,0.886249 1.1009,1.846884 0.32273,2.684082 z m -5.23626,6.099797 -0.0216,0.02325 c -0.71332,0.767431 -1.79187,0.761911 -2.81511,-0.189186 l -0.97673,-0.907865 2.48582,-2.674381 0.97673,0.907865 c 1.02324,0.951097 1.08585,2.049625 0.35091,2.840312 z m 0.32518,10.253121 8.5231,10.338113 4.31163,-3.554658 -4.6049,-5.585521 2.27831,-1.878313 4.14036,5.022069 4.06666,-3.352689 -4.14037,-5.022069 2.18031,-1.797525 4.52411,5.487529 4.31163,-3.554658 -8.44231,-10.240121 z m 9.35243,11.409294 3.23732,5.202793 5.60716,-3.488927 0.28515,0.458277 -4.19816,5.753356 3.58957,5.768899 5.09674,-7.434311 c 1.95353,0.91595 4.1946,1.092064 6.91731,-0.602079 l 0.24261,-0.150963 c 1.99486,-1.241253 3.08154,-2.740097 3.50566,-4.462387 0.45828,-1.967902 -0.11263,-4.267678 -1.62227,-6.693852 l -3.79085,-6.09239 z m 12.8881,-0.802188 4.71756,-2.935396 0.58708,0.943512 c 0.65418,1.051341 0.39599,2.259041 -1.11363,3.198367 l -0.21566,0.13419 c -1.50962,0.939327 -2.73409,0.65418 -3.40504,-0.424119 z m -4.17255,15.206956 5.17202,11.32047 5.1693,-2.36171 -2.5992,-5.68912 15.04583,-6.87404 -2.57282,-5.631354 z m 5.48273,12.50271 2.05263,5.84109 20.96801,-7.36841 -2.05263,-5.84108 z m 2.79561,7.38849 1.35749,5.84519 9.21622,-2.14038 -8.13167,6.81034 1.28567,5.53592 21.64884,-5.02774 -1.35749,-5.84519 -8.72139,2.02546 7.70148,-6.41708 -1.35031,-5.81426 z m 3.70201,17.48457 0.75631,6.24084 6.24084,-0.7563 -0.75631,-6.24084 z"
       id="text4"
       aria-label="EIN GUTER. FÜR BERLIN." /><path
       style="font-size:31.75px;font-family:GrueneType;-inkscape-font-specification:GrueneType;text-align:center;text-anchor:middle;fill:#6ccd87;stroke-width:0.264583"
       d="m 24.834429,122.10994 -5.647969,-3.77799 -0.761467,3.48976 5.636688,3.82969 -0.654298,2.99862 -5.647969,-3.77799 -0.755827,3.46391 5.642329,3.80384 -0.614815,2.81766 2.90366,1.33769 0.490724,-2.24896 3.913205,2.66828 -0.620455,2.84351 2.90366,1.33768 0.496364,-2.27481 5.984956,4.09525 0.761467,-3.48977 -5.984956,-4.09524 0.665579,-3.05032 5.979316,4.1211 0.767108,-3.51561 -5.984957,-4.09525 0.654298,-2.99862 -2.90366,-1.33768 -0.541488,2.48161 -3.913205,-2.66828 0.67122,-3.07616 -2.90366,-1.33768 z m 1.358164,8.42061 0.659938,-3.02446 3.907564,2.69413 -0.665579,3.05031 z m 7.007634,22.83172 3.9516,1.32266 1.388624,-12.35764 -3.9516,-1.32266 -0.440224,3.91763 -19.144701,-6.38463 -0.517041,4.60125 19.144701,6.38463 z m -19.771892,-0.54958 c -0.08918,3.75603 2.227977,6.48408 5.516125,7.32966 l 0.683955,0.17503 0.102363,-4.31149 -0.921385,-0.20714 c -0.894934,-0.20651 -1.588384,-1.09634 -1.568288,-1.94277 0.02009,-0.84643 0.561673,-1.36288 1.249396,-1.34656 0.132254,0.003 0.263881,0.0327 0.395507,0.0623 l 2.816428,0.64912 -0.178977,7.5385 4.474041,1.05899 c 0.763308,0.17692 1.501421,0.3003 2.109791,0.31475 2.803793,0.0666 4.295643,-1.4595 4.37477,-4.79231 0.09985,-4.20569 -2.116522,-6.71963 -6.037607,-7.65963 l -7.21049,-1.73267 c -0.394879,-0.0888 -0.790386,-0.15109 -1.187149,-0.16051 -2.565736,-0.0609 -4.545633,1.95641 -4.61848,5.02471 z m 13.565834,4.92713 -2.657723,-0.64535 0.07662,-3.22701 2.552547,0.61639 c 1.263363,0.29465 2.151389,0.79212 2.119361,2.14111 -0.02072,0.87288 -0.426907,1.26022 -1.246884,1.24075 -0.264509,-0.006 -0.607114,-0.0673 -0.843916,-0.12589 z m -11.885941,10.33505 -1.180248,-0.17973 0.330913,4.56531 14.81697,2.02975 c 0.375185,0.0524 0.693767,0.0558 1.036826,0.031 1.979182,-0.14346 3.110441,-1.73754 2.871341,-5.03618 -0.237186,-3.27225 -2.021376,-5.92834 -4.890917,-6.357 l -1.421575,-0.2153 0.325175,4.48615 0.803149,0.10095 c 0.829539,0.099 1.49157,0.44897 1.554692,1.31981 0.04399,0.60695 -0.285675,0.81654 -0.760678,0.85097 -0.131946,0.01 -0.452441,-0.0203 -0.693768,-0.0558 l -1.928707,-0.25812 -0.01913,-0.26389 c -0.415077,-5.72644 -4.845827,-8.2968 -8.804193,-8.00988 -2.533353,0.18363 -3.902113,1.79492 -3.74909,3.90605 0.137721,1.90002 1.124462,2.70391 1.709238,3.08597 z m 3.12305,-2.29554 c 1.451401,-0.1052 4.731691,0.13453 4.928708,2.8526 l 0.02869,0.39584 -3.993185,-0.55945 c -1.634602,-0.22637 -2.225116,-0.6876 -2.295889,-1.66399 -0.04782,-0.65973 0.540001,-0.96762 1.331674,-1.025 z m 12.798832,23.55012 -14.196021,-0.21838 0.877845,4.49233 13.848299,0.23241 c 0.59665,0.0182 1.131216,-0.005 1.65056,-0.10687 2.388983,-0.46683 3.299316,-2.15441 2.761445,-4.90693 -0.228341,-1.16853 -0.974834,-2.50539 -2.279171,-3.24798 1.218364,-0.93901 1.152688,-2.51674 0.893901,-3.84107 -0.299381,-1.53206 -1.289727,-2.87519 -2.50094,-3.5551 l 1.489087,0.0325 -0.60891,-3.11606 -18.933102,-0.31714 0.872771,4.46636 14.253029,0.23419 c 0.866471,0.0194 1.694441,0.53157 1.87204,1.44042 0.111633,0.57128 -0.118785,1.04765 -0.897801,1.19988 -0.129836,0.0254 -0.342648,0.04 -0.451591,0.0343 l -14.278401,-0.36403 0.903217,4.62216 14.201095,0.24435 c 1.00138,0.02 1.694441,0.53157 1.87204,1.44042 0.111633,0.57128 -0.118785,1.04764 -0.897801,1.19987 -0.129836,0.0254 -0.342648,0.04 -0.451591,0.0343 z m -12.842418,6.52243 1.436653,4.34599 8.276735,-0.75752 0.564696,1.70825 c 1.337,4.04454 5.160596,7.43428 11.717263,5.26684 3.79332,-1.25396 5.222763,-4.09514 4.209633,-7.15994 l -2.001349,-6.05424 z m 14.145935,4.35253 -0.373695,-1.13046 7.834105,-1.08493 0.373696,1.13046 c 0.398609,1.20582 -0.164864,2.36742 -1.9736,2.96533 -2.763346,0.91348 -5.287505,-0.14703 -5.860506,-1.8804 z m -5.492488,16.16442 -1.171064,0.23216 1.863034,4.18099 14.624649,-3.12764 c 0.370653,-0.0783 0.671433,-0.18332 0.985612,-0.32332 1.812569,-0.80767 2.334614,-2.69137 0.988491,-5.71232 -1.335353,-2.99678 -3.916152,-4.88824 -6.76054,-4.31598 l -1.41011,0.28075 1.830727,4.10849 0.789642,-0.17807 c 0.813809,-0.18883 1.555366,-0.0848 1.910742,0.71276 0.247687,0.55586 0.0089,0.86503 -0.426126,1.05887 -0.120838,0.0538 -0.432387,0.13473 -0.671433,0.18332 l -1.901601,0.41285 -0.10769,-0.24167 c -2.336869,-5.24437 -7.377502,-6.1556 -11.002641,-4.54025 -2.320089,1.03382 -3.059642,3.01443 -2.198124,4.94784 0.775367,1.74007 1.976609,2.16068 2.656432,2.32122 z m 2.156801,-3.22043 c 1.329217,-0.59229 4.495673,-1.48186 5.604878,1.0074 l 0.161535,0.36252 -3.945579,0.83121 c -1.61422,0.34273 -2.32635,0.10969 -2.724802,-0.78451 -0.269225,-0.60419 0.17894,-1.09355 0.903968,-1.41662 z m 0.947823,13.28501 c 1.256693,2.20733 3.349881,2.56836 4.377178,2.50107 l -2.190041,0.69883 2.369391,4.16174 18.045634,-5.73742 -2.317028,-4.06978 -12.884129,4.10802 c -0.827411,0.25794 -1.867122,-0.12439 -2.29911,-0.88316 -0.379626,-0.6668 -0.181576,-1.38847 0.39325,-1.71573 0.114966,-0.0655 0.243022,-0.10792 0.348084,-0.13729 l 12.884129,-4.10801 -2.330119,-4.09276 -13.268296,4.23539 c -0.699356,0.21549 -1.336447,0.48686 -1.888281,0.80103 -1.586521,0.90325 -2.35336,2.28366 -1.240662,4.23807 z m 28.423744,0.40154 -22.58545,9.0961 2.484279,3.68597 22.58545,-9.09609 z m -16.779603,18.20289 c 1.575123,1.99263 3.698816,2.03395 4.704225,1.81255 l -2.059646,1.02102 2.969764,3.75694 16.974339,-8.39254 -2.904134,-3.67392 -12.117496,6.00357 c -0.779064,0.37975 -1.864533,0.15854 -2.405981,-0.52643 -0.475819,-0.60194 -0.388838,-1.34522 0.130077,-1.75541 0.103783,-0.082 0.223974,-0.14332 0.323408,-0.18819 l 12.117496,-6.00357 -2.920541,-3.69468 -12.478068,6.18742 c -0.658873,0.31846 -1.247767,0.68279 -1.745925,1.07657 -1.432205,1.13212 -1.982158,2.61236 -0.587518,4.37667 z m 10.052422,12.1885 c 3.048358,3.1986 7.44,1.90064 9.7767,-0.3263 1.589722,-1.51505 1.459625,-3.10889 1.027574,-4.59771 -0.397343,-1.3757 -0.52538,-2.27707 0.106678,-2.87944 0.612905,-0.58411 1.485859,-1.08712 2.216005,-0.32099 0.365073,0.38307 0.282162,0.71793 -0.08175,1.06475 -0.229839,0.21904 -0.534493,0.43629 -0.933113,0.66999 l 2.829315,2.96876 c 0.5701,-0.36058 1.065386,-0.72295 1.563371,-1.19755 1.857868,-1.7706 1.909147,-3.9028 0.193305,-5.7032 -2.7563,-2.89215 -7.004873,-2.09604 -9.284113,0.0761 -1.781255,1.69759 -2.030625,3.50688 -1.132076,5.83035 0.264809,0.66136 0.305175,1.31733 -0.231116,1.82844 -0.555445,0.52935 -1.657339,1.21399 -2.442246,0.3904 -0.474594,-0.49798 -0.20195,-0.94057 0.0662,-1.19612 0.114919,-0.10952 0.419572,-0.32676 0.799039,-0.54221 l -2.829314,-2.96876 c -0.625761,0.34052 -1.273374,0.81152 -1.560673,1.08532 -1.723795,1.64283 -1.817878,3.99857 -0.08378,5.81813 z"
       id="text5"
       aria-label="#TeamPaulus" /></g></svg>
